\version "2.11.38"
\header {
  title =	"Title"
  subtitle =	"Subtitle"
  subsubtitle =	"Subsubtitle"
  opus = "Opus 1"
  piece = "Piece"
  composer = 	 "Composer"
  enteredby = 	 "JCN"
  instrument = "Instrument printed over the score"

  % mutopia headers.
  mutopiatitle = ""
  mutopiacomposer = ""
  mutopiaopus = ""
  mutopiainstrument = "File under these instruments at mutopia."
  date = "1807"

  source = "Urtext edition"
    
  style = "Classical"
  copyright = "Public Domain"
  maintainer = "Jan Nieuwenhuizen"
  maintainerEmail = "janneke@gnu.org"
  lastupdated =	 "2001/Mar/19"
  mutopiapublicdomain = "\\parbox{\paper-width}{\\thefooter\\quad\\small
    \\\\This music is part of the Mutopia project,
    \\texttt{http://www.mutopiaproject.org/}\\\\It has been typeset
    and placed in the public domain by " + \maintainer +
    ".\\\\Unrestricted modification and redistribution is permitted
    and encouraged---copy this music and share it.}"
 tagline = \mutopiapublicdomain
 footer = "pre-Mutopia-2001/mm/dd-nn"
}

%% the music
{ c'' }