\version "2.11.36"
\header {
  lsrtags = "repeats,staff-notation,fretted-strings"
  texidoc = "By adding the @code{Volta_engraver} to the relevant
staff, volte can be put over staves other than the topmost
one in a score."
  doctitle = "Volta multi-staff"
}

voltaMusic = \relative c'' {
  \repeat volta 2 {
    c1
  }
  \alternative {
    d1
    e
  }
}

<<
  \new StaffGroup <<
    \context Staff \voltaMusic
    \new Staff \voltaMusic
  >>
  \new StaffGroup <<
    \new Staff \with { \consists "Volta_engraver" }
      \voltaMusic
    \new Staff \voltaMusic
  >>
>>
