%% Do not edit this file; it is auto-generated from LSR http://lsr.dsi.unimi.it
%% This file is in the public domain.
\version "2.11.48"

\header {
  lsrtags = "staff-notation, contexts-and-engravers"

  texidoc = "
An extra staff can be added (possibly temporarily) after the start of a
piece.  

"
  doctitle = "Adding an extra staff"
} % begin verbatim
\score {
  <<
    \new Staff \relative c'' { c1 c c c c }
    \new StaffGroup \relative c'' {
      \new Staff {
        c1 c
        << c1 \new Staff { \once \override Staff.TimeSignature #'stencil = ##f c1 } >>
        c
      }
    }
  >>
}
