%% Do not edit this file; it is auto-generated from LSR http://lsr.dsi.unimi.it
%% This file is in the public domain.
\version "2.11.48"

\header {
  lsrtags = "simultaneous-notes"

  texidoc = "
In some instances of complex polyphonic music, additional voices are
necessary to avoid collisions between notes.  Additional voices are
added by defining a variable using the Scheme function
@code{context-spec-music}.

"
  doctitle = "Additional voices to avoid collisions"
} % begin verbatim
voiceFive = #(context-spec-music (make-voice-props-set 4) 'Voice)
\relative c'' {
  \time 3/4 \key d \minor \partial 2
  <<
    { \voiceOne
      a4. a8
      e'4 e4. e8
      f4 d4. c8
    } \\ {
      \voiceThree
      f,2
      bes4 a2
      a4 s2
    } \\ {
      \voiceFive
      s2
      g4 g2
      f4 f2
    } \\ {
      \voiceTwo
      d2
      d4 cis2
      d4 bes2
    }
  >>
}
