%% Do not edit this file; it is auto-generated from LSR http://lsr.dsi.unimi.it
%% This file is in the public domain.
\version "2.11.48"

\header {
  lsrtags = "chords, ancient-notation, contexts-and-engravers"

  texidoc = "
When writing a figured bass, here's a way to specify if you want your
figures to be placed above or below the bass notes, by defining the
@code{BassFigureAlignmentPositioning #'direction} property (exclusively
in a @code{Staff} context). Choices are @code{#UP} (or @code{#1}),
@code{#CENTER} (or @code{#0}) and @code{#DOWN} (or @code{#-1}).

As you can see here, this property can be changed as many times as you
wish. Use @code{\\once \\override} if you don't want the tweak to apply
to the whole score. 

"
  doctitle = "Adding a figured bass above or below the notes"
} % begin verbatim
bass = { \clef bass g4 b, c d e d8 c d2}
continuo = \figuremode {
         < _ >4 < 6 >8   
   \once \override Staff.BassFigureAlignmentPositioning #'direction = #CENTER
         <5/>  < _ >4 
   \override Staff.BassFigureAlignmentPositioning #'direction = #UP
         < _+ > < 6 >
   \set Staff.useBassFigureExtenders = ##t
   \override Staff.BassFigureAlignmentPositioning #'direction = #DOWN
         < 4 >4. < 4 >8 < _+ >4
       } 
\score {
    << \new Staff = bassStaff \bass 
    \context Staff = bassStaff \continuo >>
}

