%% Do not edit this file; it is auto-generated from LSR http://lsr.dsi.unimi.it
%% This file is in the public domain.
\version "2.11.48"

\header {
  lsrtags = "chords"

  texidoc = "
To add bar line indications in the @code{ChordNames} context, add the
@code{Bar_engraver}.

"
  doctitle = "Adding bar lines to ChordNames context"
} % begin verbatim
\new ChordNames \with {
  \override BarLine #'bar-size = #4
  \consists "Bar_engraver"
}
\chordmode {
  f1:maj7 f:7 bes:7 
}

