%% Do not edit this file; it is auto-generated from LSR http://lsr.dsi.unimi.it
%% This file is in the public domain.
\version "2.11.48"

\header {
  lsrtags = "expressive-marks"

  texidoc = "
The @code{shortest-duration-space} property may have to be tweaked to
adjust the shape of falls and doits.

"
  doctitle = "Adjusting the shape of falls and doits"
} % begin verbatim
\relative c'' {
  \override Score.SpacingSpanner #'shortest-duration-space = #4.0
  c2-\bendAfter #+5
  c2-\bendAfter #-3
  c2-\bendAfter #+8
  c2-\bendAfter #-6
}
