%% Do not edit this file; it is auto-generated from LSR http://lsr.dsi.unimi.it
%% This file is in the public domain.
\version "2.11.48"

\header {
  lsrtags = "pitches, vocal-music"

  texidoc = "
Adding the @code{Ambitus_engraver} to the @code{Staff} context creates
a single ambitus per staff, even in the case of staves with multiple
voices. 

"
  doctitle = "Ambitus with multiple voices"
} % begin verbatim
\new Staff \with {
  \consists "Ambitus_engraver"
  }
<<
  \new Voice \relative c'' {
    \voiceOne
    c4 a d e
    f1
  }
  \new Voice \relative c' {
    \voiceTwo
    es4 f g as
    b1
  }
>>

