%% Do not edit this file; it is auto-generated from LSR http://lsr.dsi.unimi.it
%% This file is in the public domain.
\version "2.11.48"

\header {
  lsrtags = "ancient-notation"

  texidoc = "
Time signatures may also be engraved in an old style.



"
  doctitle = "Ancient time signatures"
} % begin verbatim
\score {
   { 
    \override Staff.TimeSignature  #'style = #'neomensural
    s1 
  }
	\layout {raggedright = ##t}
}


