%% Do not edit this file; it is auto-generated from LSR http://lsr.dsi.unimi.it
%% This file is in the public domain.
\version "2.11.48"

\header {
  lsrtags = "rhythms"

  texidoc = "
Beams can be subdivided automatically.  By setting the property
@code{subdivideBeams}, beams are subdivided at beat positions (as
specified in @code{beatLength}). 

"
  doctitle = "Automatic beam subdivisions"
} % begin verbatim
\score {
  \new Staff \relative c'' {
    << {
      \voiceOne
      \set subdivideBeams = ##t
      b32[ a g f c' b a g b^"subdivide beams" a g f c' b a g]
      \oneVoice
    }
    \new Voice {
      \voiceTwo
      b32_"default"[ a g f c' b a g b a g f c' b a g]
    } >>
    \set beatLength = #(ly:make-moment 1 8)
    b32^"beatLength 1 8"[ a g f c' b a g]
    \set beatLength = #(ly:make-moment 1 16)
    b32^"beatLength 1 16"[ a g f c' b a g]
  }
}

