%% Do not edit this file; it is auto-generated from LSR http://lsr.dsi.unimi.it
%% This file is in the public domain.
\version "2.11.48"

\header {
  lsrtags = "expressive-marks, unfretted-strings"

  texidoc = "
To make the @code{\\flageolet} circle smaller use the following Scheme
function. 

"
  doctitle = "Changing \\flageolet mark size"
} % begin verbatim
smallFlageolet = #(let ((m (make-music 'ArticulationEvent
                          'articulation-type "flageolet")))
       (set! (ly:music-property m 'tweaks)
             (acons 'font-size -3
                    (ly:music-property m 'tweaks)))
       m)

\layout { ragged-right = ##f }

\relative c'' {
  d4^\flageolet_\markup { default size } d_\flageolet
  c4^\smallFlageolet_\markup { smaller } c_\smallFlageolet
}
