%% Do not edit this file; it is auto-generated from LSR http://lsr.dsi.unimi.it
%% This file is in the public domain.
\version "2.11.48"

\header {
  lsrtags = "rhythms"

  texidoc = "
By default, only the numerator of the tuplet number is printed over the
tuplet bracket, i.e., the denominator of the argument to the
@code{\\times} command. Alternatively, num:den of the tuplet number may
be printed, or the tuplet number may be suppressed altogether.

"
  doctitle = "Changing the tuplet number"
} % begin verbatim
\relative c'' {
  \times 2/3 { c8 c c } \times 2/3 { c8 c c }
  \override TupletNumber #'text = #tuplet-number::calc-fraction-text
  \times 2/3 { c8 c c }
  \override TupletNumber #'stencil = ##f
  \times 2/3 { c8 c c }
}
