%% Do not edit this file; it is auto-generated from LSR http://lsr.dsi.unimi.it
%% This file is in the public domain.
\version "2.11.48"

\header {
  lsrtags = "rhythms"

  texidoc = "
The property @code{tupletSpannerDuration} sets how long each of the
tuplets contained within the brackets after @code{\\times} should last.
Many consecutive tuplets can then be placed within a single
@code{\\times} expression, thus saving typing.

In the example, two triplets are shown, while @code{\\times} was
entered only once.


For more information about @code{make-moment}, see \"Time
administration\". 

"
  doctitle = "Entering several tuplets using only one \\times command"
} % begin verbatim
\relative c' {
  \time 2/4
  \set tupletSpannerDuration = #(ly:make-moment 1 4)
  \times 2/3 { c8 c c c c c }
}
