%% Do not edit this file; it is auto-generated from LSR http://lsr.dsi.unimi.it
%% This file is in the public domain.
\version "2.11.48"

\header {
  lsrtags = "expressive-marks"

  texidoc = "
Text style dynamic changes (such as cresc. and dim.) are printed with a
dashed line showing their extent.  This line can be suppressed in the
following way: 

"
  doctitle = "Hiding the extender line for text dynamics"
} % begin verbatim
\relative c'' {
  \override DynamicTextSpanner #'dash-period = #-1.0
  \setTextCresc
  c1\< | d | b | c\!
}
