%% Do not edit this file; it is auto-generated from LSR http://lsr.dsi.unimi.it
%% This file is in the public domain.
\version "2.11.48"

\header {
  lsrtags = "expressive-marks"

  texidoc = "
The shorthands are defined in @samp{ly/script-init.ly}, where the
variables @code{dashHat}, @code{dashPlus}, @code{dashDash},
@code{dashBar}, @code{dashLarger}, @code{dashDot}, and
@code{dashUnderscore} are assigned default values.  The default values
for the shorthands can be modified. For example, to associate the
@code{-+} (@code{dashPlus}) shorthand with the trill symbol instead of
the default + symbol, assign the value @code{trill} to the variable
@code{dashPlus}: 

"
  doctitle = "Modifying default values for articulation shorthand notation"
} % begin verbatim
\relative c'' { c1-+ }
dashPlus = "trill"
\relative c'' { c1-+ }
