%% Do not edit this file; it is auto-generated from input/new
%% This file is in the public domain.
\version "2.11.48"

\header {
  lsrtags = "text"
  texidoc = "
By putting the output of @code{lilypond-version} into a lyric or a
text markup, it is possible to print the version number of LilyPond in
a score, or in a document generated with @code{lilypond-book}.
"
  doctitle = "Outputting the version number"
} % begin verbatim

\score {
  \new Lyrics {
    \override Score.RehearsalMark #'self-alignment-X = #LEFT
    \mark #(ly:export (string-append "Processed with LilyPond version "
                       (lilypond-version)))
    s2
  }
}
