%% Do not edit this file; it is auto-generated from LSR http://lsr.dsi.unimi.it
%% This file is in the public domain.
\version "2.11.48"

\header {
  lsrtags = "vocal-music, chords, template"

  texidoc = "
This template allows the preparation of a song with melody, words, and
chords. 

"
  doctitle = "Single staff template with notes, lyrics, and chords"
} % begin verbatim
melody = \relative c' {
  \clef treble
  \key c \major
  \time 4/4
  
  a4 b c d
}

text = \lyricmode {
  Aaa Bee Cee Dee
}

harmonies = \chordmode {
  a2 c
}

\score {
  <<
    \new ChordNames {
      \set chordChanges = ##t
      \harmonies
    }
    \new Voice = "one" { \autoBeamOff \melody }
    \new Lyrics \lyricsto "one" \text
  >>
  \layout { }
  \midi { }
}
