%% Do not edit this file; it is auto-generated from input/new
%% This file is in the public domain.
\version "2.11.48"
\header {
  lsrtags = "repeats,staff-notation,chords"
  texidoc = "By adding the @code{Volta_engraver} to the relevant
staff, volte can be put under chords."
  doctitle = "Volta under chords"
} % begin verbatim

\score {
  <<
    \chords {
      c1
      c1
    }
    \new Staff \with { \consists "Volta_engraver" } {
      \repeat volta 2 { c'1 }
      \alternative { c' }
    }
  >>
  \layout {
    \context {
      \Score
      \remove "Volta_engraver"
    }
  }
}
