\version "2.11.44"

\header {
  texidoc = "Seconds do not confuse the collision algorithm too much. The best
way to format this would be to merge the two Ds, but we will be happy for now
if the upstem D does not collide with the downstem C."
}


<< d' \\ <c' d'> >>
