
\version "2.11.38"

\header{
  texidoc=" By default, text is set with empty horizontal dimensions.  
The boolean property @code{no-spacing-rods} in @code{TextScript} is used
to control the horizontal size of text.  " }

\layout {
  line-width = 3.0\cm
}

\relative c''{
  %% \textLengthOff
  %% short for \override TextScript  #'no-spacing-rods = ##t
  c2_"very wide and long text" c | \break
  %% short for \override TextScript  #'no-spacing-rods = ##f
  \textLengthOn
  c_"very wide and long text" c
}


