\version "2.11.29"

\header {
  texidoc = "When space-to-barline is false, we measure the space between the note and the
start of the clef. When space-to-barline is true, we measure the space between the note and
the start of the barline."
}

\paper {ragged-right = ##t}

{
  \override Score.SpacingSpanner #'common-shortest-duration = #(ly:make-moment 1 16)
  c'2 \clef bass c'2 \clef treble
  \override NoteSpacing #'space-to-barline = ##f
  c'2 \clef bass c'2 \clef treble

  % the following two measures should be spaced identically
  \override NoteSpacing #'space-to-barline = ##t
  c'2 c'2
  \override NoteSpacing #'space-to-barline = ##f
  c'2 c'2
  c'1
}